Supporting Information:
…
ggsave("../figures/plot_gbif_holcLA.png",holc_la, height = 5, width = 5, dpi =300)

Redlining observations summary

holc_obs <- st_join(US_pts_sf_all, holc, join = st_within)
holc_obs |> drop_na() |> filter(state=="CA")

Simple feature collection with 57851 features and 5 fields
Geometry type: POINT
Dimension:     XY
Bounding box:  xmin: -122.51 ymin: 32.665 xmax: -117.021 ymax: 38.619
Geodetic CRS:  WGS 84
# A tibble: 57,851 × 6
       n          geometry state city          holc_grade valid
 * <dbl>       <POINT [°]> <chr> <chr>         <chr>      <lgl>
 1  5159 (-118.455 33.966) CA    Los Angeles   D          TRUE 
 2   742 (-121.509 38.554) CA    Sacramento    C          TRUE 
 3  1814 (-118.532 34.043) CA    Los Angeles   B          TRUE 
 4    19 (-118.266 33.993) CA    Los Angeles   D          TRUE 
 5     3 (-122.499 37.736) CA    San Francisco B          TRUE 
 6    26 (-118.223 34.195) CA    Los Angeles   B          TRUE 
 7     1  (-118.26 34.085) CA    Los Angeles   C          TRUE 
 8    15 (-122.295 37.812) CA    Oakland       D          TRUE 
 9    11 (-122.494 37.734) CA    San Francisco B          TRUE 
10    73 (-122.266 37.888) CA    Oakland       B          TRUE 
# ℹ 57,841 more rows
…
